{
  "name": "pw.keymaker",
  "description": "Master Password algorithm implementation backend for browser integration.",
  "path": "__PATH__",
  "type": "stdio",
  "allowed_origins": [
    "chrome-extension://kmbmlhafdceedjdallkmghefjfjpmenn/"
  ]
}